$GPGLL,1045.59940,N,10639.73901,E,150737.00,A,A*6E
$GPRMC,150738.00,A,1045.59696,N,10639.73407,E,0.270,,190521,,,A*7C
$GPVTG,,T,,M,0.270,N,0.501,K,A*22
$GPGGA,150738.00,1045.59696,N,10639.73407,E,1,05,1.76,24.5,M,-2.5,M,,*77
$GPGSA,A,3,18,29,23,32,25,,,,,,,,2.99,1.76,2.42*01
$GPGSV,4,1,13,05,17,082,21,10,08,311,,12,13,145,,13,02,039,*75
$GPGSV,4,2,13,15,27,025,,18,60,335,33,20,36,060,20,23,27,337,22*71
$GPGSV,4,3,13,24,63,073,17,25,12,181,30,29,34,208,38,32,19,252,42*75
$GPGSV,4,4,13,40,30,262,*4A


*** Disable
$GPRMC B5 62 06 01 03 00 F0 04 00 FE 17
$GPVTG B5 62 06 01 03 00 F0 05 00 FF 19
$GPGGA B5 62 06 01 03 00 F0 00 00 FA 0F
$GPGSA B5 62 06 01 03 00 F0 02 00 FC 13
$GPGSV B5 62 06 01 03 00 F0 03 00 FD 15
$GPGLL B5 62 06 01 03 00 F0 01 00 FB 11

*** Enable
$GPGLL B5 62 06 01 03 00 F0 01 01 FC 12

*** Failed message
$GPGLL,,,,,154539.00,V,N*45
27 characters

*** Valid message
$GPGLL,1045.60329,N,10639.71867,E,154556.00,A,A*63
50 characters